PCI/Qt TB Generator/Generated Test Bench/Simulation.vcd
$date
	Fri Dec 28 13:52:54 2018
$end
$version
	Icarus Verilog
$end
$timescale
	1ps
$end
$scope module PCI_testB $end
$var reg 1 ! CLK $end
$var reg 32 " FORCED_ADDRESS_A [31:0] $end
$var reg 32 # FORCED_ADDRESS_B [31:0] $end
$var reg 32 $ FORCED_ADDRESS_C [31:0] $end
$var reg 32 % FORCED_ADDRESS_D [31:0] $end
$var reg 32 & FORCED_ADDRESS_E [31:0] $end
$var reg 32 ' FORCED_ADDRESS_F [31:0] $end
$var reg 32 ( FORCED_ADDRESS_G [31:0] $end
$var reg 32 ) FORCED_ADDRESS_H [31:0] $end
$var reg 4 * FORCED_CBE_N_A [3:0] $end
$var reg 4 + FORCED_CBE_N_B [3:0] $end
$var reg 4 , FORCED_CBE_N_C [3:0] $end
$var reg 4 - FORCED_CBE_N_D [3:0] $end
$var reg 4 . FORCED_CBE_N_E [3:0] $end
$var reg 4 / FORCED_CBE_N_F [3:0] $end
$var reg 4 0 FORCED_CBE_N_G [3:0] $end
$var reg 4 1 FORCED_CBE_N_H [3:0] $end
$var reg 8 2 FORCED_REQ_N [7:0] $end
$var reg 4 3 Forced_DataTfNo_A [3:0] $end
$var reg 4 4 Forced_DataTfNo_B [3:0] $end
$var reg 4 5 Forced_DataTfNo_C [3:0] $end
$var reg 4 6 Forced_DataTfNo_D [3:0] $end
$var reg 4 7 Forced_DataTfNo_E [3:0] $end
$var reg 4 8 Forced_DataTfNo_F [3:0] $end
$var reg 4 9 Forced_DataTfNo_G [3:0] $end
$var reg 4 : Forced_DataTfNo_H [3:0] $end
$var reg 1 ; Forced_Frame $end
$var reg 1 < Forced_IRDY $end
$var reg 1 = Forced_TRDY $end
$var reg 1 > RST_N $end
$var reg 2 ? mode [1:0] $end
$var integer 32 @ i [31:0] $end
$scope module pci $end
$var wire 32 A AD [31:0] $end
$var wire 4 B CBE_N [3:0] $end
$var wire 1 ! CLK $end
$var wire 1 C DEVSEL_N $end
$var wire 32 D FORCED_ADDRESS_A [31:0] $end
$var wire 32 E FORCED_ADDRESS_B [31:0] $end
$var wire 32 F FORCED_ADDRESS_C [31:0] $end
$var wire 32 G FORCED_ADDRESS_D [31:0] $end
$var wire 32 H FORCED_ADDRESS_E [31:0] $end
$var wire 32 I FORCED_ADDRESS_F [31:0] $end
$var wire 32 J FORCED_ADDRESS_G [31:0] $end
$var wire 32 K FORCED_ADDRESS_H [31:0] $end
$var wire 4 L FORCED_CBE_N_A [3:0] $end
$var wire 4 M FORCED_CBE_N_B [3:0] $end
$var wire 4 N FORCED_CBE_N_C [3:0] $end
$var wire 4 O FORCED_CBE_N_D [3:0] $end
$var wire 4 P FORCED_CBE_N_E [3:0] $end
$var wire 4 Q FORCED_CBE_N_F [3:0] $end
$var wire 4 R FORCED_CBE_N_G [3:0] $end
$var wire 4 S FORCED_CBE_N_H [3:0] $end
$var wire 8 T FORCED_REQ_N [7:0] $end
$var wire 1 U FRAME_N $end
$var wire 4 V Forced_DataTfNo_A [3:0] $end
$var wire 4 W Forced_DataTfNo_B [3:0] $end
$var wire 4 X Forced_DataTfNo_C [3:0] $end
$var wire 4 Y Forced_DataTfNo_D [3:0] $end
$var wire 4 Z Forced_DataTfNo_E [3:0] $end
$var wire 4 [ Forced_DataTfNo_F [3:0] $end
$var wire 4 \ Forced_DataTfNo_G [3:0] $end
$var wire 4 ] Forced_DataTfNo_H [3:0] $end
$var wire 1 ; Forced_Frame $end
$var wire 1 < Forced_IRDY $end
$var wire 1 = Forced_TRDY $end
$var wire 8 ^ GNT_N [7:0] $end
$var wire 1 _ IRDY_N $end
$var wire 1 > RST_N $end
$var wire 1 ` TRDY_N $end
$var wire 2 a mode [1:0] $end
$var wire 8 b REQ_N [7:0] $end
$scope module A $end
$var wire 32 c AD [31:0] $end
$var wire 4 d CBE_N [3:0] $end
$var wire 1 ! CLK $end
$var wire 1 C DEVSEL_N $end
$var wire 32 e FORCED_ADDRESS [31:0] $end
$var wire 4 f FORCED_CBE_N [3:0] $end
$var wire 1 g FORCED_REQ_N $end
$var wire 1 U FRAME_N $end
$var wire 4 h Forced_DataTfNo [3:0] $end
$var wire 1 ; Forced_Frame $end
$var wire 1 < Forced_IRDY $end
$var wire 1 = Forced_TRDY $end
$var wire 1 i GNT_N $end
$var wire 1 _ IRDY_N $end
$var wire 32 j MIN_ADDRESS [31:0] $end
$var wire 1 k REQ_N $end
$var wire 1 > RST_N $end
$var wire 1 ` TRDY_N $end
$var reg 32 l ADreg [31:0] $end
$var reg 1 m BusStatus $end
$var reg 4 n CBE_Nreg [3:0] $end
$var reg 4 o Counter [3:0] $end
$var reg 1 p DEVSEL_Nreg $end
$var reg 1 q FRAME_Nreg $end
$var reg 1 r IRDY_Nreg $end
$var reg 1 s MasterFlag $end
$var reg 1 t ReadFlag $end
$var reg 1 u SlaveFlag $end
$var reg 3 v Status [2:0] $end
$var reg 1 w TRDY_Nreg $end
$var reg 1 x WriteFlag $end
$upscope $end
$scope module B $end
$var wire 32 y AD [31:0] $end
$var wire 4 z CBE_N [3:0] $end
$var wire 1 ! CLK $end
$var wire 1 C DEVSEL_N $end
$var wire 32 { FORCED_ADDRESS [31:0] $end
$var wire 4 | FORCED_CBE_N [3:0] $end
$var wire 1 } FORCED_REQ_N $end
$var wire 1 U FRAME_N $end
$var wire 4 ~ Forced_DataTfNo [3:0] $end
$var wire 1 ; Forced_Frame $end
$var wire 1 < Forced_IRDY $end
$var wire 1 = Forced_TRDY $end
$var wire 1 !" GNT_N $end
$var wire 1 _ IRDY_N $end
$var wire 32 "" MIN_ADDRESS [31:0] $end
$var wire 1 #" REQ_N $end
$var wire 1 > RST_N $end
$var wire 1 ` TRDY_N $end
$var reg 32 $" ADreg [31:0] $end
$var reg 1 %" BusStatus $end
$var reg 4 &" CBE_Nreg [3:0] $end
$var reg 4 '" Counter [3:0] $end
$var reg 1 (" DEVSEL_Nreg $end
$var reg 1 )" FRAME_Nreg $end
$var reg 1 *" IRDY_Nreg $end
$var reg 1 +" MasterFlag $end
$var reg 1 ," ReadFlag $end
$var reg 1 -" SlaveFlag $end
$var reg 3 ." Status [2:0] $end
$var reg 1 /" TRDY_Nreg $end
$var reg 1 0" WriteFlag $end
$upscope $end
$scope module C $end
$var wire 32 1" AD [31:0] $end
$var wire 4 2" CBE_N [3:0] $end
$var wire 1 ! CLK $end
$var wire 1 C DEVSEL_N $end
$var wire 32 3" FORCED_ADDRESS [31:0] $end
$var wire 4 4" FORCED_CBE_N [3:0] $end
$var wire 1 5" FORCED_REQ_N $end
$var wire 1 U FRAME_N $end
$var wire 4 6" Forced_DataTfNo [3:0] $end
$var wire 1 ; Forced_Frame $end
$var wire 1 < Forced_IRDY $end
$var wire 1 = Forced_TRDY $end
$var wire 1 7" GNT_N $end
$var wire 1 _ IRDY_N $end
$var wire 32 8" MIN_ADDRESS [31:0] $end
$var wire 1 9" REQ_N $end
$var wire 1 > RST_N $end
$var wire 1 ` TRDY_N $end
$var reg 32 :" ADreg [31:0] $end
$var reg 1 ;" BusStatus $end
$var reg 4 <" CBE_Nreg [3:0] $end
$var reg 4 =" Counter [3:0] $end
$var reg 1 >" DEVSEL_Nreg $end
$var reg 1 ?" FRAME_Nreg $end
$var reg 1 @" IRDY_Nreg $end
$var reg 1 A" MasterFlag $end
$var reg 1 B" ReadFlag $end
$var reg 1 C" SlaveFlag $end
$var reg 3 D" Status [2:0] $end
$var reg 1 E" TRDY_Nreg $end
$var reg 1 F" WriteFlag $end
$upscope $end
$scope module D $end
$var wire 32 G" AD [31:0] $end
$var wire 4 H" CBE_N [3:0] $end
$var wire 1 ! CLK $end
$var wire 1 C DEVSEL_N $end
$var wire 32 I" FORCED_ADDRESS [31:0] $end
$var wire 4 J" FORCED_CBE_N [3:0] $end
$var wire 1 K" FORCED_REQ_N $end
$var wire 1 U FRAME_N $end
$var wire 4 L" Forced_DataTfNo [3:0] $end
$var wire 1 ; Forced_Frame $end
$var wire 1 < Forced_IRDY $end
$var wire 1 = Forced_TRDY $end
$var wire 1 M" GNT_N $end
$var wire 1 _ IRDY_N $end
$var wire 32 N" MIN_ADDRESS [31:0] $end
$var wire 1 O" REQ_N $end
$var wire 1 > RST_N $end
$var wire 1 ` TRDY_N $end
$var reg 32 P" ADreg [31:0] $end
$var reg 1 Q" BusStatus $end
$var reg 4 R" CBE_Nreg [3:0] $end
$var reg 4 S" Counter [3:0] $end
$var reg 1 T" DEVSEL_Nreg $end
$var reg 1 U" FRAME_Nreg $end
$var reg 1 V" IRDY_Nreg $end
$var reg 1 W" MasterFlag $end
$var reg 1 X" ReadFlag $end
$var reg 1 Y" SlaveFlag $end
$var reg 3 Z" Status [2:0] $end
$var reg 1 [" TRDY_Nreg $end
$var reg 1 \" WriteFlag $end
$upscope $end
$scope module E $end
$var wire 32 ]" AD [31:0] $end
$var wire 4 ^" CBE_N [3:0] $end
$var wire 1 ! CLK $end
$var wire 1 C DEVSEL_N $end
$var wire 32 _" FORCED_ADDRESS [31:0] $end
$var wire 4 `" FORCED_CBE_N [3:0] $end
$var wire 1 a" FORCED_REQ_N $end
$var wire 1 U FRAME_N $end
$var wire 4 b" Forced_DataTfNo [3:0] $end
$var wire 1 ; Forced_Frame $end
$var wire 1 < Forced_IRDY $end
$var wire 1 = Forced_TRDY $end
$var wire 1 c" GNT_N $end
$var wire 1 _ IRDY_N $end
$var wire 32 d" MIN_ADDRESS [31:0] $end
$var wire 1 e" REQ_N $end
$var wire 1 > RST_N $end
$var wire 1 ` TRDY_N $end
$var reg 32 f" ADreg [31:0] $end
$var reg 1 g" BusStatus $end
$var reg 4 h" CBE_Nreg [3:0] $end
$var reg 4 i" Counter [3:0] $end
$var reg 1 j" DEVSEL_Nreg $end
$var reg 1 k" FRAME_Nreg $end
$var reg 1 l" IRDY_Nreg $end
$var reg 1 m" MasterFlag $end
$var reg 1 n" ReadFlag $end
$var reg 1 o" SlaveFlag $end
$var reg 3 p" Status [2:0] $end
$var reg 1 q" TRDY_Nreg $end
$var reg 1 r" WriteFlag $end
$upscope $end
$scope module F $end
$var wire 32 s" AD [31:0] $end
$var wire 4 t" CBE_N [3:0] $end
$var wire 1 ! CLK $end
$var wire 1 C DEVSEL_N $end
$var wire 32 u" FORCED_ADDRESS [31:0] $end
$var wire 4 v" FORCED_CBE_N [3:0] $end
$var wire 1 w" FORCED_REQ_N $end
$var wire 1 U FRAME_N $end
$var wire 4 x" Forced_DataTfNo [3:0] $end
$var wire 1 ; Forced_Frame $end
$var wire 1 < Forced_IRDY $end
$var wire 1 = Forced_TRDY $end
$var wire 1 y" GNT_N $end
$var wire 1 _ IRDY_N $end
$var wire 32 z" MIN_ADDRESS [31:0] $end
$var wire 1 {" REQ_N $end
$var wire 1 > RST_N $end
$var wire 1 ` TRDY_N $end
$var reg 32 |" ADreg [31:0] $end
$var reg 1 }" BusStatus $end
$var reg 4 ~" CBE_Nreg [3:0] $end
$var reg 4 !# Counter [3:0] $end
$var reg 1 "# DEVSEL_Nreg $end
$var reg 1 ## FRAME_Nreg $end
$var reg 1 $# IRDY_Nreg $end
$var reg 1 %# MasterFlag $end
$var reg 1 &# ReadFlag $end
$var reg 1 '# SlaveFlag $end
$var reg 3 (# Status [2:0] $end
$var reg 1 )# TRDY_Nreg $end
$var reg 1 *# WriteFlag $end
$upscope $end
$scope module FCFSArbiter $end
$var wire 1 ! CLK $end
$var wire 1 U FRAME_Neg $end
$var wire 8 +# GNT [7:0] $end
$var wire 2 ,# ON_OFF [1:0] $end
$var wire 8 -# REQ [7:0] $end
$var wire 1 > RST_Neg $end
$var wire 8 .# memory_out [7:0] $end
$var wire 8 /# TH7 [7:0] $end
$var wire 8 0# TH6 [7:0] $end
$var wire 8 1# TH5 [7:0] $end
$var wire 8 2# TH4 [7:0] $end
$var wire 8 3# TH3 [7:0] $end
$var wire 8 4# TH2 [7:0] $end
$var wire 8 5# TH1 [7:0] $end
$var wire 8 6# TH0 [7:0] $end
$scope module RT1 $end
$var wire 1 ! CLK $end
$var wire 8 7# REQ [7:0] $end
$var reg 8 8# THREADING_REQ0 [7:0] $end
$var reg 8 9# THREADING_REQ1 [7:0] $end
$var reg 8 :# THREADING_REQ2 [7:0] $end
$var reg 8 ;# THREADING_REQ3 [7:0] $end
$var reg 8 <# THREADING_REQ4 [7:0] $end
$var reg 8 =# THREADING_REQ5 [7:0] $end
$var reg 8 ># THREADING_REQ6 [7:0] $end
$var reg 8 ?# THREADING_REQ7 [7:0] $end
$var reg 4 @# free_location [3:0] $end
$upscope $end
$scope module m1 $end
$var wire 1 ! CLK $end
$var wire 1 U FRAME $end
$var wire 8 A# IN0 [7:0] $end
$var wire 8 B# IN1 [7:0] $end
$var wire 8 C# IN2 [7:0] $end
$var wire 8 D# IN3 [7:0] $end
$var wire 8 E# IN4 [7:0] $end
$var wire 8 F# IN5 [7:0] $end
$var wire 8 G# IN6 [7:0] $end
$var wire 8 H# IN7 [7:0] $end
$var wire 2 I# ON_OFF [1:0] $end
$var wire 1 > RESET $end
$var reg 1 J# ENABLE_TO_GNT $end
$var reg 8 K# OUT1 [7:0] $end
$var reg 1 L# first_time $end
$var reg 3 M# free_location [2:0] $end
$upscope $end
$upscope $end
$scope module G $end
$var wire 32 N# AD [31:0] $end
$var wire 4 O# CBE_N [3:0] $end
$var wire 1 ! CLK $end
$var wire 1 C DEVSEL_N $end
$var wire 32 P# FORCED_ADDRESS [31:0] $end
$var wire 4 Q# FORCED_CBE_N [3:0] $end
$var wire 1 R# FORCED_REQ_N $end
$var wire 1 U FRAME_N $end
$var wire 4 S# Forced_DataTfNo [3:0] $end
$var wire 1 ; Forced_Frame $end
$var wire 1 < Forced_IRDY $end
$var wire 1 = Forced_TRDY $end
$var wire 1 T# GNT_N $end
$var wire 1 _ IRDY_N $end
$var wire 32 U# MIN_ADDRESS [31:0] $end
$var wire 1 V# REQ_N $end
$var wire 1 > RST_N $end
$var wire 1 ` TRDY_N $end
$var reg 32 W# ADreg [31:0] $end
$var reg 1 X# BusStatus $end
$var reg 4 Y# CBE_Nreg [3:0] $end
$var reg 4 Z# Counter [3:0] $end
$var reg 1 [# DEVSEL_Nreg $end
$var reg 1 \# FRAME_Nreg $end
$var reg 1 ]# IRDY_Nreg $end
$var reg 1 ^# MasterFlag $end
$var reg 1 _# ReadFlag $end
$var reg 1 `# SlaveFlag $end
$var reg 3 a# Status [2:0] $end
$var reg 1 b# TRDY_Nreg $end
$var reg 1 c# WriteFlag $end
$upscope $end
$scope module H $end
$var wire 32 d# AD [31:0] $end
$var wire 4 e# CBE_N [3:0] $end
$var wire 1 ! CLK $end
$var wire 1 C DEVSEL_N $end
$var wire 32 f# FORCED_ADDRESS [31:0] $end
$var wire 4 g# FORCED_CBE_N [3:0] $end
$var wire 1 h# FORCED_REQ_N $end
$var wire 1 U FRAME_N $end
$var wire 4 i# Forced_DataTfNo [3:0] $end
$var wire 1 ; Forced_Frame $end
$var wire 1 < Forced_IRDY $end
$var wire 1 = Forced_TRDY $end
$var wire 1 j# GNT_N $end
$var wire 1 _ IRDY_N $end
$var wire 32 k# MIN_ADDRESS [31:0] $end
$var wire 1 l# REQ_N $end
$var wire 1 > RST_N $end
$var wire 1 ` TRDY_N $end
$var reg 32 m# ADreg [31:0] $end
$var reg 1 n# BusStatus $end
$var reg 4 o# CBE_Nreg [3:0] $end
$var reg 4 p# Counter [3:0] $end
$var reg 1 q# DEVSEL_Nreg $end
$var reg 1 r# FRAME_Nreg $end
$var reg 1 s# IRDY_Nreg $end
$var reg 1 t# MasterFlag $end
$var reg 1 u# ReadFlag $end
$var reg 1 v# SlaveFlag $end
$var reg 3 w# Status [2:0] $end
$var reg 1 x# TRDY_Nreg $end
$var reg 1 y# WriteFlag $end
$upscope $end
$scope module PriorityArbiter $end
$var wire 1 U FRAME_N $end
$var wire 8 z# GNT_N [7:0] $end
$var wire 8 {# REQ_N [7:0] $end
$var wire 1 > RST_N $end
$var wire 2 |# mode [1:0] $end
$var reg 1 }# BusStatus $end
$var reg 1 ~# EN $end
$var reg 8 !$ GNT_Nreg [7:0] $end
$upscope $end
$scope module RobinRoundArbiter $end
$var wire 1 U FRAME_N $end
$var wire 8 "$ GNT_N [7:0] $end
$var wire 8 #$ REQ_N [7:0] $end
$var wire 1 > RST_N $end
$var wire 2 $$ mode [1:0] $end
$var reg 1 %$ BusStatus $end
$var reg 1 &$ EN $end
$var reg 8 '$ GNT_Nreg [7:0] $end
$var reg 3 ($ counter [2:0] $end
$upscope $end
$upscope $end
$upscope $end
$enddefinitions $end
#0
$dumpvars
bx ($
bz '$
x&$
x%$
b0 $$
bx #$
b11111111 "$
b11111111 !$
1~#
1}#
b0 |#
bx {#
b11111111 z#
xy#
zx#
b0 w#
0v#
xu#
0t#
zs#
zr#
zq#
b0 p#
bz o#
1n#
bz m#
xl#
b1000110 k#
1j#
bx i#
xh#
bx g#
bx f#
bz e#
bz d#
xc#
zb#
b0 a#
0`#
x_#
0^#
z]#
z\#
z[#
b0 Z#
bz Y#
1X#
bz W#
xV#
b111100 U#
1T#
bx S#
xR#
bx Q#
bx P#
bz O#
bz N#
bx M#
0L#
bz K#
xJ#
b0 I#
bx H#
bx G#
bx F#
bx E#
bx D#
bx C#
bx B#
bx A#
bx @#
bx ?#
bx >#
bx =#
bx <#
bx ;#
bx :#
bx 9#
bx 8#
bx 7#
bx 6#
bx 5#
bx 4#
bx 3#
bx 2#
bx 1#
bx 0#
bx /#
bz .#
bx -#
b0 ,#
b11111111 +#
x*#
z)#
b0 (#
0'#
x&#
0%#
z$#
z##
z"#
b0 !#
bz ~"
1}"
bz |"
x{"
b110010 z"
1y"
bx x"
xw"
bx v"
bx u"
bz t"
bz s"
xr"
zq"
b0 p"
0o"
xn"
0m"
zl"
zk"
zj"
b0 i"
bz h"
1g"
bz f"
xe"
b101000 d"
1c"
bx b"
xa"
bx `"
bx _"
bz ^"
bz ]"
x\"
z["
b0 Z"
0Y"
xX"
0W"
zV"
zU"
zT"
b0 S"
bz R"
1Q"
bz P"
xO"
b11110 N"
1M"
bx L"
xK"
bx J"
bx I"
bz H"
bz G"
xF"
zE"
b0 D"
0C"
xB"
0A"
z@"
z?"
z>"
b0 ="
bz <"
1;"
bz :"
x9"
b10100 8"
17"
bx 6"
x5"
bx 4"
bx 3"
bz 2"
bz 1"
x0"
z/"
b0 ."
0-"
x,"
0+"
z*"
z)"
z("
b0 '"
bz &"
1%"
bz $"
x#"
b1010 ""
1!"
bx ~
x}
bx |
bx {
bz z
bz y
xx
zw
b0 v
0u
xt
0s
zr
zq
zp
b0 o
bz n
1m
bz l
xk
b0 j
1i
bx h
xg
bx f
bx e
bz d
bz c
bx b
b0 a
z`
z_
b11111111 ^
bx ]
bx \
bx [
bx Z
bx Y
bx X
bx W
bx V
zU
bx T
bx S
bx R
bx Q
bx P
bx O
bx N
bx M
bx L
bx K
bx J
bx I
bx H
bx G
bx F
bx E
bx D
zC
bz B
bz A
b0 @
b0 ?
0>
0=
0<
0;
bx :
bx 9
bx 8
bx 7
bx 6
bx 5
bx 4
bx 3
bx 2
bx 1
bx 0
bx /
bx .
bx -
bx ,
bx +
bx *
bx )
bx (
bx '
bx &
bx %
bx $
bx #
bx "
0!
$end
#5000
b1 @
1!
#10000
1>
b10 @
0!
#13000
b11111111 /#
b11111111 ?#
b11111111 H#
b11111111 0#
b11111111 >#
b11111111 G#
b11111111 1#
b11111111 =#
b11111111 F#
b11111111 2#
b11111111 <#
b11111111 E#
b11111111 3#
b11111111 ;#
b11111111 D#
b11111111 4#
b11111111 :#
b11111111 C#
b11111111 5#
b11111111 9#
b11111111 B#
0i
b11111110 6#
b11111110 8#
b11111110 A#
0}#
0~#
b11111110 ^
b11111110 +#
b11111110 z#
b11111110 "$
b11111110 !$
b1000 @#
0k
0g
1#"
1}
19"
15"
1O"
1K"
1e"
1a"
1{"
1w"
1V#
1R#
b11111110 b
b11111110 -#
b11111110 7#
b11111110 {#
b11111110 #$
1l#
1h#
b1000 3
b1000 V
b1000 h
b111 *
b111 L
b111 f
b1010 "
b1010 D
b1010 e
b11111110 2
b11111110 T
#15000
b1 v
1s
b11 @
1!
#20000
1~#
b10 v
b111 B
b111 d
b111 z
b111 2"
b111 H"
b111 ^"
b111 t"
b111 O#
b111 e#
b111 n
b1010 A
b1010 c
b1010 y
b1010 1"
b1010 G"
b1010 ]"
b1010 s"
b1010 N#
b1010 d#
b1010 l
0U
0q
b100 @
0!
#25000
b1 ."
1-"
b101 @
1!
#30000
0m
0%"
0;"
0Q"
0g"
0}"
0X#
0n#
b100 ."
10"
0,"
0`
0/"
0C
0("
b100 v
b1 A
b1 c
b1 y
b1 1"
b1 G"
b1 ]"
b1 s"
b1 N#
b1 d#
b1 l
1x
0t
0_
0r
b110 @
0!
#33000
b11111111 6#
b11111111 8#
b11111111 A#
b111 @#
b11111111 b
b11111111 -#
b11111111 7#
b11111111 {#
b11111111 #$
1k
1g
b11111111 2
b11111111 T
b0 *
b0 L
b0 f
#35000
b1 '"
b1 o
b111 @
1!
#40000
b0 B
b0 d
b0 z
b0 2"
b0 H"
b0 ^"
b0 t"
b0 O#
b0 e#
b0 n
b10 A
b10 c
b10 y
b10 1"
b10 G"
b10 ]"
b10 s"
b10 N#
b10 d#
b10 l
b1000 @
0!
#45000
b10 o
b10 '"
b1001 @
1!
#50000
b11 A
b11 c
b11 y
b11 1"
b11 G"
b11 ]"
b11 s"
b11 N#
b11 d#
b11 l
b1010 @
0!
#55000
b11 '"
b11 o
b1011 @
1!
#60000
b100 A
b100 c
b100 y
b100 1"
b100 G"
b100 ]"
b100 s"
b100 N#
b100 d#
b100 l
b1100 @
0!
#65000
b100 o
b100 '"
b1101 @
1!
#70000
b101 A
b101 c
b101 y
b101 1"
b101 G"
b101 ]"
b101 s"
b101 N#
b101 d#
b101 l
b1110 @
0!
#75000
b101 '"
b101 o
b1111 @
1!
#80000
b110 A
b110 c
b110 y
b110 1"
b110 G"
b110 ]"
b110 s"
b110 N#
b110 d#
b110 l
b10000 @
0!
#85000
b110 o
b110 '"
b10001 @
1!
#90000
b111 A
b111 c
b111 y
b111 1"
b111 G"
b111 ]"
b111 s"
b111 N#
b111 d#
b111 l
b10010 @
0!
#95000
b111 '"
b111 o
b10011 @
1!
#100000
1i
1}#
b11111111 ^
b11111111 +#
b11111111 z#
b11111111 "$
b11111111 !$
1U
1q
b1000 A
b1000 c
b1000 y
b1000 1"
b1000 G"
b1000 ]"
b1000 s"
b1000 N#
b1000 d#
b1000 l
b10100 @
0!
#105000
b101 v
b1000 o
b101 ."
b1000 '"
b10101 @
1!
#110000
1n#
1X#
1}"
1g"
1Q"
1;"
1%"
1m
b110 ."
1`
1/"
1C
1("
b110 v
bz B
bz d
bz z
bz 2"
bz H"
bz ^"
bz t"
bz O#
bz e#
bz n
bz A
bz c
bz y
bz 1"
bz G"
bz ]"
bz s"
bz N#
bz d#
bz l
1_
1r
b10110 @
0!
#115000
b10111 @
1!
#120000
b0 v
0s
b0 o
z_
zr
zU
zq
b0 ."
b0 '"
0-"
z`
z/"
zC
z("
b11000 @
0!
#125000
b11001 @
1!
#130000
b11010 @
0!
#135000
b11011 @
1!
#136000
0c"
b11101111 6#
b11101111 8#
b11101111 A#
0}#
0~#
b11101111 ^
b11101111 +#
b11101111 z#
b11101111 "$
b11101111 !$
b1000 @#
b11101111 b
b11101111 -#
b11101111 7#
b11101111 {#
b11101111 #$
0e"
0a"
b111 7
b111 Z
b111 b"
b110 .
b110 P
b110 `"
b110010 &
b110010 H
b110010 _"
b11101111 2
b11101111 T
#140000
b11100 @
0!
#145000
b1 p"
1m"
b11101 @
1!
#150000
1~#
b10 p"
b110 B
b110 d
b110 z
b110 2"
b110 H"
b110 ^"
b110 t"
b110 O#
b110 e#
b110 h"
b110010 A
b110010 c
b110010 y
b110010 1"
b110010 G"
b110010 ]"
b110010 s"
b110010 N#
b110010 d#
b110010 f"
0U
0k"
b11110 @
0!
#155000
b1 (#
1'#
b11111 @
1!
#156000
b11111111 6#
b11111111 8#
b11111111 A#
b111 @#
b11111111 b
b11111111 -#
b11111111 7#
b11111111 {#
b11111111 #$
1e"
1a"
b11111111 2
b11111111 T
b0 .
b0 P
b0 `"
#160000
0n#
0X#
0}"
0g"
0Q"
0;"
0%"
0m
b11 p"
b0 B
b0 d
b0 z
b0 2"
b0 H"
b0 ^"
b0 t"
b0 O#
b0 e#
b0 h"
bz A
bz c
bz y
bz 1"
bz G"
bz ]"
bz s"
bz N#
bz d#
bz f"
0r"
1n"
0_
0l"
b100 (#
0*#
1&#
0`
0)#
0C
0"#
b100000 @
0!
#165000
b1 !#
b100001 @
1!
#170000
b1100100000000000000010 A
b1100100000000000000010 c
b1100100000000000000010 y
b1100100000000000000010 1"
b1100100000000000000010 G"
b1100100000000000000010 ]"
b1100100000000000000010 s"
b1100100000000000000010 N#
b1100100000000000000010 d#
b1100100000000000000010 |"
b100 p"
b100010 @
0!
#175000
b10 !#
b1 i"
b100011 @
1!
#180000
b1100100000000000000011 A
b1100100000000000000011 c
b1100100000000000000011 y
b1100100000000000000011 1"
b1100100000000000000011 G"
b1100100000000000000011 ]"
b1100100000000000000011 s"
b1100100000000000000011 N#
b1100100000000000000011 d#
b1100100000000000000011 |"
b100100 @
0!
#185000
b10 i"
b11 !#
b100101 @
1!
#190000
b1100100000000000000100 A
b1100100000000000000100 c
b1100100000000000000100 y
b1100100000000000000100 1"
b1100100000000000000100 G"
b1100100000000000000100 ]"
b1100100000000000000100 s"
b1100100000000000000100 N#
b1100100000000000000100 d#
b1100100000000000000100 |"
b100110 @
0!
#195000
b100 !#
b11 i"
b100111 @
1!
#200000
b1100100000000000000101 A
b1100100000000000000101 c
b1100100000000000000101 y
b1100100000000000000101 1"
b1100100000000000000101 G"
b1100100000000000000101 ]"
b1100100000000000000101 s"
b1100100000000000000101 N#
b1100100000000000000101 d#
b1100100000000000000101 |"
b101000 @
0!
#205000
b100 i"
b101 !#
b101001 @
1!
#210000
b1100100000000000000110 A
b1100100000000000000110 c
b1100100000000000000110 y
b1100100000000000000110 1"
b1100100000000000000110 G"
b1100100000000000000110 ]"
b1100100000000000000110 s"
b1100100000000000000110 N#
b1100100000000000000110 d#
b1100100000000000000110 |"
b101010 @
0!
#215000
b110 !#
b101 i"
b101011 @
1!
#220000
b1100100000000000000111 A
b1100100000000000000111 c
b1100100000000000000111 y
b1100100000000000000111 1"
b1100100000000000000111 G"
b1100100000000000000111 ]"
b1100100000000000000111 s"
b1100100000000000000111 N#
b1100100000000000000111 d#
b1100100000000000000111 |"
b101100 @
0!
#225000
b110 i"
b111 !#
b101101 @
1!
#230000
1c"
1}#
b11111111 ^
b11111111 +#
b11111111 z#
b11111111 "$
b11111111 !$
b1100100000000000001000 A
b1100100000000000001000 c
b1100100000000000001000 y
b1100100000000000001000 1"
b1100100000000000001000 G"
b1100100000000000001000 ]"
b1100100000000000001000 s"
b1100100000000000001000 N#
b1100100000000000001000 d#
b1100100000000000001000 |"
1U
1k"
b101110 @
0!
#235000
b101 (#
b1000 !#
b111 i"
b101111 @
1!
#240000
1m
1%"
1;"
1Q"
1g"
1}"
1X#
1n#
b110 p"
bz B
bz d
bz z
bz 2"
bz H"
bz ^"
bz t"
bz O#
bz e#
bz h"
1_
1l"
b110 (#
bz A
bz c
bz y
bz 1"
bz G"
bz ]"
bz s"
bz N#
bz d#
bz |"
1`
1)#
1C
1"#
b110000 @
0!
#245000
b110001 @
1!
#250000
b0 (#
b0 !#
0'#
z`
z)#
zC
z"#
b0 p"
0m"
b0 i"
z_
zl"
zU
zk"
b110010 @
0!
#252000
0M"
b11110111 6#
b11110111 8#
b11110111 A#
0}#
0~#
b11110111 ^
b11110111 +#
b11110111 z#
b11110111 "$
b11110111 !$
b1000 @#
b11110111 b
b11110111 -#
b11110111 7#
b11110111 {#
b11110111 #$
0O"
0K"
b111 6
b111 Y
b111 L"
b110 -
b110 O
b110 J"
b111100 %
b111100 G
b111100 I"
b11110111 2
b11110111 T
#255000
b1 Z"
1W"
b110011 @
1!
#260000
1~#
b10 Z"
b110 B
b110 d
b110 z
b110 2"
b110 H"
b110 ^"
b110 t"
b110 O#
b110 e#
b110 R"
b111100 A
b111100 c
b111100 y
b111100 1"
b111100 G"
b111100 ]"
b111100 s"
b111100 N#
b111100 d#
b111100 P"
0U
0U"
b110100 @
0!
#265000
b1 a#
1`#
b110101 @
1!
#270000
0m
0%"
0;"
0Q"
0g"
0}"
0X#
0n#
b100 a#
0c#
1_#
0`
0b#
0C
0[#
b11 Z"
b0 B
b0 d
b0 z
b0 2"
b0 H"
b0 ^"
b0 t"
b0 O#
b0 e#
b0 R"
bz A
bz c
bz y
bz 1"
bz G"
bz ]"
bz s"
bz N#
bz d#
bz P"
0\"
1X"
0_
0V"
b110110 @
0!
#272000
b11111111 6#
b11111111 8#
b11111111 A#
b111 @#
b11111111 b
b11111111 -#
b11111111 7#
b11111111 {#
b11111111 #$
1O"
1K"
b11111111 2
b11111111 T
b0 -
b0 O
b0 J"
#275000
b1 Z#
b110111 @
1!
#280000
b100 Z"
b1111000000000000000010 A
b1111000000000000000010 c
b1111000000000000000010 y
b1111000000000000000010 1"
b1111000000000000000010 G"
b1111000000000000000010 ]"
b1111000000000000000010 s"
b1111000000000000000010 N#
b1111000000000000000010 d#
b1111000000000000000010 W#
b111000 @
0!
#285000
b1 S"
b10 Z#
b111001 @
1!
