PPI/PPI.sim/sim_1/behav/xsim/simulate.log
Vivado Simulator 2018.2
Time resolution is 1 ps
Reset
                   0 CS=x RD=x WR=x Sel=xx Reset=1 PortA=xxxxxxxx PortB=xxxxxxxx PortC=xxxxxxxx D=xxxxxxxx
***********************************************************1st************************************************
PortA output,PortB output,PortUC output , PortLC output confg
                   5 CS=0 RD=x WR=x Sel=11 Reset=0 PortA=xxxxxxxx PortB=xxxxxxxx PortC=zzzzzzzz D=10000000
                   7 CS=0 RD=1 WR=0 Sel=11 Reset=0 PortA=xxxxxxxx PortB=xxxxxxxx PortC=00000000 D=10000000
Write in PortA
                   9 CS=0 RD=1 WR=1 Sel=00 Reset=0 PortA=xxxxxxxx PortB=xxxxxxxx PortC=00000000 D=01010101
                  11 CS=0 RD=1 WR=0 Sel=00 Reset=0 PortA=01010101 PortB=xxxxxxxx PortC=00000000 D=01010101
Write in PortB
                  13 CS=0 RD=1 WR=1 Sel=01 Reset=0 PortA=01010101 PortB=xxxxxxxx PortC=00000000 D=01011111
                  15 CS=0 RD=1 WR=0 Sel=01 Reset=0 PortA=01010101 PortB=01011111 PortC=00000000 D=01011111
Write in PortC
                  17 CS=0 RD=1 WR=1 Sel=10 Reset=0 PortA=01010101 PortB=01011111 PortC=00000000 D=01010101
                  19 CS=0 RD=1 WR=0 Sel=10 Reset=0 PortA=01010101 PortB=01011111 PortC=01010101 D=01010101
                  21 CS=0 RD=1 WR=1 Sel=10 Reset=0 PortA=01010101 PortB=01011111 PortC=01010101 D=01010101
Reset
                  26 CS=0 RD=1 WR=1 Sel=10 Reset=1 PortA=zzzzzzzz PortB=zzzzzzzz PortC=zzzzzzzz D=01010101
********************************************************2nd***************************************************
PortA output,PortB output,PortUC output , PortLC Input confg
                  31 CS=0 RD=1 WR=1 Sel=11 Reset=0 PortA=zzzzzzzz PortB=zzzzzzzz PortC=zzzzzzzz D=10000001
                  33 CS=0 RD=1 WR=0 Sel=11 Reset=0 PortA=zzzzzzzz PortB=zzzzzzzz PortC=0000zzzz D=10000001
Write in PortA
                  35 CS=0 RD=1 WR=1 Sel=00 Reset=0 PortA=zzzzzzzz PortB=zzzzzzzz PortC=0000zzzz D=01010101
                  37 CS=0 RD=1 WR=0 Sel=00 Reset=0 PortA=01010101 PortB=zzzzzzzz PortC=0000zzzz D=01010101
Write in PortB
                  39 CS=0 RD=1 WR=1 Sel=01 Reset=0 PortA=01010101 PortB=zzzzzzzz PortC=0000zzzz D=01010101
                  41 CS=0 RD=1 WR=0 Sel=01 Reset=0 PortA=01010101 PortB=01010101 PortC=0000zzzz D=01010101
Write in PortUC
                  43 CS=0 RD=1 WR=1 Sel=10 Reset=0 PortA=01010101 PortB=01010101 PortC=0000zzzz D=01010101
                  45 CS=0 RD=1 WR=0 Sel=10 Reset=0 PortA=01010101 PortB=01010101 PortC=0101zzzz D=01010101
Read from PortLC
                  47 CS=0 RD=1 WR=1 Sel=10 Reset=0 PortA=01010101 PortB=01010101 PortC=01011111 D=zzzzzzzz
                  49 CS=0 RD=0 WR=1 Sel=10 Reset=0 PortA=01010101 PortB=01010101 PortC=01011111 D=zzzz1111
Reset
                  51 CS=0 RD=1 WR=1 Sel=10 Reset=1 PortA=zzzzzzzz PortB=zzzzzzzz PortC=zzzz1111 D=zzzzzzzz
*****************************************************3rd*****************************************************
PortA output,PortB input,PortUC output , PortLC output confg
                  56 CS=0 RD=1 WR=1 Sel=11 Reset=0 PortA=zzzzzzzz PortB=zzzzzzzz PortC=zzzzzzzz D=10000010
                  58 CS=0 RD=1 WR=0 Sel=11 Reset=0 PortA=zzzzzzzz PortB=zzzzzzzz PortC=00000000 D=10000010
Write in PortA
                  60 CS=0 RD=1 WR=1 Sel=00 Reset=0 PortA=zzzzzzzz PortB=zzzzzzzz PortC=00000000 D=01010101
                  62 CS=0 RD=1 WR=0 Sel=00 Reset=0 PortA=01010101 PortB=zzzzzzzz PortC=00000000 D=01010101
Read from PortB
                  64 CS=0 RD=1 WR=1 Sel=01 Reset=0 PortA=01010101 PortB=11111111 PortC=00000000 D=zzzzzzzz
                  66 CS=0 RD=0 WR=1 Sel=01 Reset=0 PortA=01010101 PortB=11111111 PortC=00000000 D=11111111
Write in PortC
                  68 CS=0 RD=1 WR=1 Sel=10 Reset=0 PortA=01010101 PortB=11111111 PortC=00000000 D=01010101
                  70 CS=0 RD=1 WR=0 Sel=10 Reset=0 PortA=01010101 PortB=11111111 PortC=x1x1x1x1 D=01010101
Reset
                  72 CS=0 RD=1 WR=1 Sel=10 Reset=1 PortA=zzzzzzzz PortB=zzzzzzzz PortC=zzzzzzzz D=01010101
*******************************************************4th****************************************************
PortA output,PortB input,PortUC output , PortLC Input confg
                  77 CS=0 RD=1 WR=1 Sel=11 Reset=0 PortA=zzzzzzzz PortB=zzzzzzzz PortC=zzzzzzzz D=10000011
                  79 CS=0 RD=1 WR=0 Sel=11 Reset=0 PortA=zzzzzzzz PortB=zzzzzzzz PortC=0000zzzz D=10000011
Write in PortA
                  81 CS=0 RD=1 WR=1 Sel=00 Reset=0 PortA=zzzzzzzz PortB=zzzzzzzz PortC=0000zzzz D=01010101
                  83 CS=0 RD=1 WR=0 Sel=00 Reset=0 PortA=01010101 PortB=zzzzzzzz PortC=0000zzzz D=01010101
Read from PortB
                  85 CS=0 RD=1 WR=1 Sel=01 Reset=0 PortA=01010101 PortB=11111111 PortC=0000zzzz D=zzzzzzzz
                  87 CS=0 RD=0 WR=1 Sel=01 Reset=0 PortA=01010101 PortB=11111111 PortC=0000zzzz D=11111111
Write in PortUC
                  89 CS=0 RD=1 WR=1 Sel=10 Reset=0 PortA=01010101 PortB=11111111 PortC=0000zzzz D=01010101
                  91 CS=0 RD=1 WR=0 Sel=10 Reset=0 PortA=01010101 PortB=11111111 PortC=x1x1zzzz D=01010101
Read from PortLC
                  93 CS=0 RD=1 WR=1 Sel=10 Reset=0 PortA=01010101 PortB=11111111 PortC=x1x11111 D=zzzzzzzz
                  95 CS=0 RD=0 WR=1 Sel=10 Reset=0 PortA=01010101 PortB=11111111 PortC=x1x11111 D=11111111
Reset
                  97 CS=0 RD=1 WR=1 Sel=10 Reset=1 PortA=zzzzzzzz PortB=zzzzzzzz PortC=zzzz1111 D=zzzzzzzz
*******************************************************5th****************************************************
PortA output,PortB output,PortUC input , PortLC output confg
                 102 CS=0 RD=1 WR=1 Sel=11 Reset=0 PortA=zzzzzzzz PortB=zzzzzzzz PortC=zzzzzzzz D=10001000
                 104 CS=0 RD=1 WR=0 Sel=11 Reset=0 PortA=zzzzzzzz PortB=zzzzzzzz PortC=zzzz0000 D=10001000
Write in PortA
                 106 CS=0 RD=1 WR=1 Sel=00 Reset=0 PortA=zzzzzzzz PortB=zzzzzzzz PortC=zzzz0000 D=01010101
                 108 CS=0 RD=1 WR=0 Sel=00 Reset=0 PortA=01010101 PortB=zzzzzzzz PortC=zzzz0000 D=01010101
write in PortB
                 110 CS=0 RD=1 WR=1 Sel=01 Reset=0 PortA=01010101 PortB=zzzzzzzz PortC=zzzz0000 D=01010101
                 112 CS=0 RD=1 WR=0 Sel=01 Reset=0 PortA=01010101 PortB=01010101 PortC=zzzz0000 D=01010101
Read from PortUC
                 114 CS=0 RD=1 WR=1 Sel=10 Reset=0 PortA=01010101 PortB=01010101 PortC=01010000 D=zzzzzzzz
                 116 CS=0 RD=0 WR=1 Sel=10 Reset=0 PortA=01010101 PortB=01010101 PortC=01010000 D=0101zzzz
Write in PortLC
                 118 CS=0 RD=1 WR=1 Sel=10 Reset=0 PortA=01010101 PortB=01010101 PortC=zzzz0000 D=01010101
                 120 CS=0 RD=1 WR=0 Sel=10 Reset=0 PortA=01010101 PortB=01010101 PortC=zzzz0101 D=01010101
Reset
                 122 CS=0 RD=1 WR=1 Sel=10 Reset=1 PortA=zzzzzzzz PortB=zzzzzzzz PortC=zzzzzzzz D=01010101
*******************************************************6th****************************************************
PortA output,PortB output,PortUC input , PortLC input confg
                 127 CS=0 RD=1 WR=1 Sel=11 Reset=0 PortA=zzzzzzzz PortB=zzzzzzzz PortC=zzzzzzzz D=10001001
                 129 CS=0 RD=1 WR=0 Sel=11 Reset=0 PortA=zzzzzzzz PortB=zzzzzzzz PortC=zzzzzzzz D=10001001
Write in PortA
                 131 CS=0 RD=1 WR=1 Sel=00 Reset=0 PortA=zzzzzzzz PortB=zzzzzzzz PortC=zzzzzzzz D=01010101
                 133 CS=0 RD=1 WR=0 Sel=00 Reset=0 PortA=01010101 PortB=zzzzzzzz PortC=zzzzzzzz D=01010101
write in PortB
                 135 CS=0 RD=1 WR=1 Sel=01 Reset=0 PortA=01010101 PortB=zzzzzzzz PortC=zzzzzzzz D=01010101
                 137 CS=0 RD=1 WR=0 Sel=01 Reset=0 PortA=01010101 PortB=01010101 PortC=zzzzzzzz D=01010101
Read from PortUC
                 139 CS=0 RD=1 WR=1 Sel=10 Reset=0 PortA=01010101 PortB=01010101 PortC=11111111 D=zzzzzzzz
                 141 CS=0 RD=0 WR=1 Sel=10 Reset=0 PortA=01010101 PortB=01010101 PortC=11111111 D=11111111
Reset
                 143 CS=0 RD=1 WR=1 Sel=10 Reset=1 PortA=zzzzzzzz PortB=zzzzzzzz PortC=11111111 D=zzzzzzzz
*******************************************************7th****************************************************
PortA output,PortB input,PortUC input , PortLC output confg
                 148 CS=0 RD=1 WR=1 Sel=11 Reset=0 PortA=zzzzzzzz PortB=zzzzzzzz PortC=zzzzzzzz D=10001010
                 150 CS=0 RD=1 WR=0 Sel=11 Reset=0 PortA=zzzzzzzz PortB=zzzzzzzz PortC=zzzz0000 D=10001010
Write in PortA
                 152 CS=0 RD=1 WR=1 Sel=00 Reset=0 PortA=zzzzzzzz PortB=zzzzzzzz PortC=zzzz0000 D=01010101
                 154 CS=0 RD=1 WR=0 Sel=00 Reset=0 PortA=01010101 PortB=zzzzzzzz PortC=zzzz0000 D=01010101
Read from PortB
                 156 CS=0 RD=1 WR=1 Sel=01 Reset=0 PortA=01010101 PortB=01011111 PortC=zzzz0000 D=zzzzzzzz
                 158 CS=0 RD=0 WR=1 Sel=01 Reset=0 PortA=01010101 PortB=01011111 PortC=zzzz0000 D=01011111
Read from PortUC
                 160 CS=0 RD=1 WR=1 Sel=10 Reset=0 PortA=01010101 PortB=01011111 PortC=01010000 D=zzzzzzzz
                 162 CS=0 RD=0 WR=1 Sel=10 Reset=0 PortA=01010101 PortB=01011111 PortC=01010000 D=01011111
Write in PortLC
                 164 CS=0 RD=1 WR=1 Sel=10 Reset=0 PortA=01010101 PortB=01011111 PortC=zzzz0000 D=01010101
                 166 CS=0 RD=1 WR=0 Sel=10 Reset=0 PortA=01010101 PortB=01011111 PortC=zzzzx1x1 D=01010101
Reset
                 168 CS=0 RD=1 WR=1 Sel=10 Reset=1 PortA=zzzzzzzz PortB=zzzzzzzz PortC=zzzzzzzz D=01010101
*******************************************************8th****************************************************
PortA output,PortB input,PortUC input , PortLC input confg
                 173 CS=0 RD=1 WR=1 Sel=11 Reset=0 PortA=zzzzzzzz PortB=zzzzzzzz PortC=zzzzzzzz D=10001011
                 175 CS=0 RD=1 WR=0 Sel=11 Reset=0 PortA=zzzzzzzz PortB=zzzzzzzz PortC=zzzzzzzz D=10001011
Write in PortA
                 177 CS=0 RD=1 WR=1 Sel=00 Reset=0 PortA=zzzzzzzz PortB=zzzzzzzz PortC=zzzzzzzz D=01010101
                 179 CS=0 RD=1 WR=0 Sel=00 Reset=0 PortA=01010101 PortB=zzzzzzzz PortC=zzzzzzzz D=01010101
Read from PortB
                 181 CS=0 RD=1 WR=1 Sel=01 Reset=0 PortA=01010101 PortB=01011111 PortC=zzzzzzzz D=zzzzzzzz
                 183 CS=0 RD=0 WR=1 Sel=01 Reset=0 PortA=01010101 PortB=01011111 PortC=zzzzzzzz D=01011111
Read from PortC
                 185 CS=0 RD=1 WR=1 Sel=10 Reset=0 PortA=01010101 PortB=01011111 PortC=01011100 D=zzzzzzzz
                 187 CS=0 RD=0 WR=1 Sel=10 Reset=0 PortA=01010101 PortB=01011111 PortC=01011100 D=010111xx
Reset
                 189 CS=0 RD=1 WR=1 Sel=10 Reset=1 PortA=zzzzzzzz PortB=zzzzzzzz PortC=01011100 D=zzzzzzzz
*******************************************************9th****************************************************
PortA input,PortB output,PortUC output , PortLC output confg
                 194 CS=0 RD=1 WR=1 Sel=11 Reset=0 PortA=zzzzzzzz PortB=zzzzzzzz PortC=zzzzzzzz D=10010000
                 196 CS=0 RD=1 WR=0 Sel=11 Reset=0 PortA=zzzzzzzz PortB=zzzzzzzz PortC=00000000 D=10010000
Read from PortA
                 198 CS=0 RD=1 WR=1 Sel=00 Reset=0 PortA=11111111 PortB=zzzzzzzz PortC=00000000 D=zzzzzzzz
                 200 CS=0 RD=0 WR=1 Sel=00 Reset=0 PortA=11111111 PortB=zzzzzzzz PortC=00000000 D=11111111
Write in PortB
                 202 CS=0 RD=1 WR=1 Sel=01 Reset=0 PortA=11111111 PortB=zzzzzzzz PortC=00000000 D=01010101
                 204 CS=0 RD=1 WR=0 Sel=01 Reset=0 PortA=11111111 PortB=x1x1x1x1 PortC=00000000 D=01010101
Write in PortC
                 206 CS=0 RD=1 WR=1 Sel=10 Reset=0 PortA=11111111 PortB=x1x1x1x1 PortC=00000000 D=01010101
                 208 CS=0 RD=1 WR=0 Sel=10 Reset=0 PortA=11111111 PortB=x1x1x1x1 PortC=x1x1x1x1 D=01010101
Reset
                 210 CS=0 RD=1 WR=1 Sel=10 Reset=1 PortA=zzzzzzzz PortB=zzzzzzzz PortC=zzzzzzzz D=01010101
********************************************************10th***************************************************
PortA input,PortB output,PortUC output , PortLC Input confg
                 215 CS=0 RD=1 WR=1 Sel=11 Reset=0 PortA=zzzzzzzz PortB=zzzzzzzz PortC=zzzzzzzz D=10010001
                 217 CS=0 RD=1 WR=0 Sel=11 Reset=0 PortA=zzzzzzzz PortB=zzzzzzzz PortC=0000zzzz D=10010001
Read from PortA
                 219 CS=0 RD=1 WR=1 Sel=00 Reset=0 PortA=11111111 PortB=zzzzzzzz PortC=0000zzzz D=zzzzzzzz
                 221 CS=0 RD=0 WR=1 Sel=00 Reset=0 PortA=11111111 PortB=zzzzzzzz PortC=0000zzzz D=11111111
Write in PortB
                 223 CS=0 RD=1 WR=1 Sel=01 Reset=0 PortA=11111111 PortB=11111111 PortC=0000zzzz D=01010101
                 225 CS=0 RD=1 WR=0 Sel=01 Reset=0 PortA=11111111 PortB=x1x1x1x1 PortC=0000zzzz D=01010101
Write in PortUC
                 227 CS=0 RD=1 WR=1 Sel=10 Reset=0 PortA=11111111 PortB=x1x1x1x1 PortC=0000zzzz D=01010101
                 229 CS=0 RD=1 WR=0 Sel=10 Reset=0 PortA=11111111 PortB=x1x1x1x1 PortC=x1x1zzzz D=01010101
Read from PortLC
                 231 CS=0 RD=1 WR=1 Sel=10 Reset=0 PortA=11111111 PortB=x1x1x1x1 PortC=x1x11111 D=zzzzzzzz
                 233 CS=0 RD=0 WR=1 Sel=10 Reset=0 PortA=11111111 PortB=x1x1x1x1 PortC=x1x11111 D=11111111
Reset
                 235 CS=0 RD=1 WR=1 Sel=10 Reset=1 PortA=zzzzzzzz PortB=zzzzzzzz PortC=zzzz1111 D=zzzzzzzz
*****************************************************11th*****************************************************
PortA input,PortB input,PortUC output , PortLC output confg
                 240 CS=0 RD=1 WR=1 Sel=11 Reset=0 PortA=zzzzzzzz PortB=zzzzzzzz PortC=zzzzzzzz D=10010010
                 242 CS=0 RD=1 WR=0 Sel=11 Reset=0 PortA=zzzzzzzz PortB=zzzzzzzz PortC=00000000 D=10010010
Read from PortA
                 244 CS=0 RD=1 WR=1 Sel=00 Reset=0 PortA=11111111 PortB=zzzzzzzz PortC=00000000 D=zzzzzzzz
                 246 CS=0 RD=0 WR=1 Sel=00 Reset=0 PortA=11111111 PortB=zzzzzzzz PortC=00000000 D=11111111
Read from PortB
                 248 CS=0 RD=1 WR=1 Sel=01 Reset=0 PortA=11111111 PortB=11111111 PortC=00000000 D=zzzzzzzz
                 250 CS=0 RD=0 WR=1 Sel=01 Reset=0 PortA=11111111 PortB=11111111 PortC=00000000 D=11111111
Write in PortC
                 252 CS=0 RD=1 WR=1 Sel=10 Reset=0 PortA=11111111 PortB=11111111 PortC=00000000 D=01010101
                 254 CS=0 RD=1 WR=0 Sel=10 Reset=0 PortA=11111111 PortB=11111111 PortC=x1x1x1x1 D=01010101
Reset
                 256 CS=0 RD=1 WR=1 Sel=10 Reset=1 PortA=zzzzzzzz PortB=zzzzzzzz PortC=zzzzzzzz D=01010101
*******************************************************12th****************************************************
PortA input,PortB input,PortUC output , PortLC Input confg
                 261 CS=0 RD=1 WR=1 Sel=11 Reset=0 PortA=zzzzzzzz PortB=zzzzzzzz PortC=zzzzzzzz D=10010011
                 263 CS=0 RD=1 WR=0 Sel=11 Reset=0 PortA=zzzzzzzz PortB=zzzzzzzz PortC=0000zzzz D=10010011
Read from PortA
                 265 CS=0 RD=1 WR=1 Sel=00 Reset=0 PortA=11111111 PortB=zzzzzzzz PortC=0000zzzz D=zzzzzzzz
                 267 CS=0 RD=0 WR=1 Sel=00 Reset=0 PortA=11111111 PortB=zzzzzzzz PortC=0000zzzz D=11111111
Read from PortB
                 269 CS=0 RD=1 WR=1 Sel=01 Reset=0 PortA=11111111 PortB=11111111 PortC=0000zzzz D=zzzzzzzz
                 271 CS=0 RD=0 WR=1 Sel=01 Reset=0 PortA=11111111 PortB=11111111 PortC=0000zzzz D=11111111
Write in PortUC
                 273 CS=0 RD=1 WR=1 Sel=10 Reset=0 PortA=11111111 PortB=11111111 PortC=0000zzzz D=01010101
                 275 CS=0 RD=1 WR=0 Sel=10 Reset=0 PortA=11111111 PortB=11111111 PortC=x1x1zzzz D=01010101
Read from PortLC
                 277 CS=0 RD=1 WR=1 Sel=10 Reset=0 PortA=11111111 PortB=11111111 PortC=x1x11111 D=zzzzzzzz
                 279 CS=0 RD=0 WR=1 Sel=10 Reset=0 PortA=11111111 PortB=11111111 PortC=x1x11111 D=11111111
Reset
                 281 CS=0 RD=1 WR=1 Sel=10 Reset=1 PortA=zzzzzzzz PortB=zzzzzzzz PortC=zzzz1111 D=zzzzzzzz
*******************************************************13th****************************************************
PortA input,PortB output,PortUC input , PortLC output confg
                 286 CS=0 RD=1 WR=1 Sel=11 Reset=0 PortA=zzzzzzzz PortB=zzzzzzzz PortC=zzzzzzzz D=10011000
                 288 CS=0 RD=1 WR=0 Sel=11 Reset=0 PortA=zzzzzzzz PortB=zzzzzzzz PortC=zzzz0000 D=10011000
Read from PortA
                 290 CS=0 RD=1 WR=1 Sel=00 Reset=0 PortA=11111111 PortB=zzzzzzzz PortC=zzzz0000 D=zzzzzzzz
                 292 CS=0 RD=0 WR=1 Sel=00 Reset=0 PortA=11111111 PortB=zzzzzzzz PortC=zzzz0000 D=11111111
write in PortB
                 294 CS=0 RD=1 WR=1 Sel=01 Reset=0 PortA=11111111 PortB=zzzzzzzz PortC=zzzz0000 D=01010101
                 296 CS=0 RD=1 WR=0 Sel=01 Reset=0 PortA=11111111 PortB=x1x1x1x1 PortC=zzzz0000 D=01010101
Read from PortUC
                 298 CS=0 RD=1 WR=1 Sel=10 Reset=0 PortA=11111111 PortB=x1x1x1x1 PortC=01010000 D=zzzzzzzz
                 300 CS=0 RD=0 WR=1 Sel=10 Reset=0 PortA=11111111 PortB=x1x1x1x1 PortC=01010000 D=x1x11111
Write in PortLC
                 302 CS=0 RD=1 WR=1 Sel=10 Reset=0 PortA=11111111 PortB=x1x1x1x1 PortC=zzzz0000 D=01010101
                 304 CS=0 RD=1 WR=0 Sel=10 Reset=0 PortA=11111111 PortB=x1x1x1x1 PortC=zzzzx1x1 D=01010101
Reset
                 306 CS=0 RD=1 WR=1 Sel=10 Reset=1 PortA=zzzzzzzz PortB=zzzzzzzz PortC=zzzzzzzz D=01010101
*******************************************************14th****************************************************
PortA input,PortB output,PortUC input , PortLC input confg
                 311 CS=0 RD=1 WR=1 Sel=11 Reset=0 PortA=zzzzzzzz PortB=zzzzzzzz PortC=zzzzzzzz D=10011001
                 313 CS=0 RD=1 WR=0 Sel=11 Reset=0 PortA=zzzzzzzz PortB=zzzzzzzz PortC=zzzzzzzz D=10011001
Read from PortA
                 315 CS=0 RD=1 WR=1 Sel=00 Reset=0 PortA=11111111 PortB=zzzzzzzz PortC=zzzzzzzz D=zzzzzzzz
                 317 CS=0 RD=0 WR=1 Sel=00 Reset=0 PortA=11111111 PortB=zzzzzzzz PortC=zzzzzzzz D=11111111
write in PortB
                 319 CS=0 RD=1 WR=1 Sel=01 Reset=0 PortA=11111111 PortB=11111111 PortC=zzzzzzzz D=01010101
                 321 CS=0 RD=1 WR=0 Sel=01 Reset=0 PortA=11111111 PortB=x1x1x1x1 PortC=zzzzzzzz D=01010101
Read from PortUC
                 323 CS=0 RD=1 WR=1 Sel=10 Reset=0 PortA=11111111 PortB=x1x1x1x1 PortC=11111111 D=zzzzzzzz
                 325 CS=0 RD=0 WR=1 Sel=10 Reset=0 PortA=11111111 PortB=x1x1x1x1 PortC=11111111 D=11111111
Reset
                 327 CS=0 RD=1 WR=1 Sel=10 Reset=1 PortA=zzzzzzzz PortB=zzzzzzzz PortC=11111111 D=zzzzzzzz
*******************************************************15th****************************************************
PortA input,PortB input,PortUC input , PortLC output confg
                 332 CS=0 RD=1 WR=1 Sel=11 Reset=0 PortA=zzzzzzzz PortB=zzzzzzzz PortC=zzzzzzzz D=10011010
                 334 CS=0 RD=1 WR=0 Sel=11 Reset=0 PortA=zzzzzzzz PortB=zzzzzzzz PortC=zzzz0000 D=10011010
Read from PortA
                 336 CS=0 RD=1 WR=1 Sel=00 Reset=0 PortA=11111111 PortB=zzzzzzzz PortC=zzzz0000 D=zzzzzzzz
                 338 CS=0 RD=0 WR=1 Sel=00 Reset=0 PortA=11111111 PortB=zzzzzzzz PortC=zzzz0000 D=11111111
Read from PortB
                 340 CS=0 RD=1 WR=1 Sel=01 Reset=0 PortA=11111111 PortB=01011111 PortC=zzzz0000 D=zzzzzzzz
                 342 CS=0 RD=0 WR=1 Sel=01 Reset=0 PortA=11111111 PortB=01011111 PortC=zzzz0000 D=x1x11111
Read from PortUC
                 344 CS=0 RD=1 WR=1 Sel=10 Reset=0 PortA=11111111 PortB=01011111 PortC=01010000 D=zzzzzzzz
                 346 CS=0 RD=0 WR=1 Sel=10 Reset=0 PortA=11111111 PortB=01011111 PortC=01010000 D=x1x11111
Write in PortLC
                 348 CS=0 RD=1 WR=1 Sel=10 Reset=0 PortA=11111111 PortB=01011111 PortC=zzzz0000 D=01010101
                 350 CS=0 RD=1 WR=0 Sel=10 Reset=0 PortA=11111111 PortB=01011111 PortC=zzzzx1x1 D=01010101
Reset
                 352 CS=0 RD=1 WR=1 Sel=10 Reset=1 PortA=zzzzzzzz PortB=zzzzzzzz PortC=zzzzzzzz D=01010101
*******************************************************16th****************************************************
PortA input,PortB input,PortUC input , PortLC input confg
                 357 CS=0 RD=1 WR=1 Sel=11 Reset=0 PortA=zzzzzzzz PortB=zzzzzzzz PortC=zzzzzzzz D=10011011
                 359 CS=0 RD=1 WR=0 Sel=11 Reset=0 PortA=zzzzzzzz PortB=zzzzzzzz PortC=zzzzzzzz D=10011011
Read from PortA
                 361 CS=0 RD=1 WR=1 Sel=00 Reset=0 PortA=11111111 PortB=zzzzzzzz PortC=zzzzzzzz D=zzzzzzzz
                 363 CS=0 RD=0 WR=1 Sel=00 Reset=