PCI/PCI.sim/sim_1/behav/xsim/simulate.log
Vivado Simulator 2018.2
Time resolution is 1 ps
                   0 REQ = xxxxxxxx  FRAME = 1  GNT = xxxxxxxx  RST = 0
                   5 REQ = xxxxxxxx  FRAME = 1  GNT = 11111111  RST = 0
                   8 REQ = xxxxxxxx  FRAME = 1  GNT = 11111111  RST = 1
                  18 REQ = 00000111  FRAME = 1  GNT = 11111111  RST = 1
                  25 REQ = 00000111  FRAME = 0  GNT = 11111111  RST = 1
                  28 REQ = 00000100  FRAME = 0  GNT = 11111111  RST = 1
                  38 REQ = 00000110  FRAME = 0  GNT = 11111111  RST = 1
                  48 REQ = 00000100  FRAME = 0  GNT = 11111111  RST = 1
                  50 REQ = 00000100  FRAME = 1  GNT = 11111111  RST = 1
                  55 REQ = 00000100  FRAME = 1  GNT = 11111110  RST = 1
                  58 REQ = 00000111  FRAME = 1  GNT = 11111110  RST = 1
                  65 REQ = 00000111  FRAME = 1  GNT = 11110111  RST = 1
                  75 REQ = 00000111  FRAME = 0  GNT = 11110111  RST = 1
                  78 REQ = 00000001  FRAME = 0  GNT = 11110111  RST = 1
                  88 REQ = 00000110  FRAME = 0  GNT = 11110111  RST = 1
                  98 REQ = 00000100  FRAME = 0  GNT = 11110111  RST = 1
                 100 REQ = 00000100  FRAME = 1  GNT = 11110111  RST = 1
                 105 REQ = 00000100  FRAME = 1  GNT = 11101111  RST = 1
                 108 REQ = 00000111  FRAME = 1  GNT = 11101111  RST = 1
                 115 REQ = 00000111  FRAME = 1  GNT = 11011111  RST = 1
                 118 REQ = 00000010  FRAME = 1  GNT = 11011111  RST = 1
                 125 REQ = 00000010  FRAME = 0  GNT = 11011111  RST = 1
                 128 REQ = 00000011  FRAME = 0  GNT = 11011111  RST = 1
                 138 REQ = 00000111  FRAME = 0  GNT = 11011111  RST = 1
                 148 REQ = 00000011  FRAME = 0  GNT = 11011111  RST = 1
                 150 REQ = 00000011  FRAME = 1  GNT = 11011111  RST = 1
                 155 REQ = 00000011  FRAME = 1  GNT = 10111111  RST = 1
                 158 REQ = 00000001  FRAME = 1  GNT = 10111111  RST = 1
                 165 REQ = 00000001  FRAME = 1  GNT = 01111111  RST = 1
                 168 REQ = 00000011  FRAME = 1  GNT = 01111111  RST = 1
                 175 REQ = 00000011  FRAME = 0  GNT = 01111111  RST = 1
                 198 REQ = 00000110  FRAME = 0  GNT = 01111111  RST = 1
                 200 REQ = 00000110  FRAME = 1  GNT = 01111111  RST = 1
                 205 REQ = 00000110  FRAME = 1  GNT = 11111110  RST = 1
                 208 REQ = 00000010  FRAME = 1  GNT = 11111110  RST = 1
                 215 REQ = 00000010  FRAME = 1  GNT = 11111011  RST = 1
                 225 REQ = 00000010  FRAME = 0  GNT = 11111011  RST = 1
                 250 REQ = 00000010  FRAME = 1  GNT = 11111011  RST = 1
                 255 REQ = 00000010  FRAME = 1  GNT = 11110111  RST = 1
                 265 REQ = 00000010  FRAME = 1  GNT = 11101111  RST = 1
                 275 REQ = 00000010  FRAME = 0  GNT = 11101111  RST = 1
                 300 REQ = 00000010  FRAME = 1  GNT = 11101111  RST = 1
                 305 REQ = 00000010  FRAME = 1  GNT = 11011111  RST = 1
                 315 REQ = 00000010  FRAME = 1  GNT = 10111111  RST = 1
                 325 REQ = 00000010  FRAME = 0  GNT = 10111111  RST = 1
                 350 REQ = 00000010  FRAME = 1  GNT = 10111111  RST = 1
                 355 REQ = 00000010  FRAME = 1  GNT = 01111111  RST = 1
                 365 REQ = 00000010  FRAME = 1  GNT = 11111110  RST = 1
                 375 REQ = 00000010  FRAME = 0  GNT = 11111110  RST = 1
                 400 REQ = 00000010  FRAME = 1  GNT = 11111110  RST = 1
                 405 REQ = 00000010  FRAME = 1  GNT = 11111011  RST = 1
                 415 REQ = 00000010  FRAME = 1  GNT = 11110111  RST = 1
                 425 REQ = 00000010  FRAME = 0  GNT = 11110111  RST = 1
                 450 REQ = 00000010  FRAME = 1  GNT = 11110111  RST = 1
                 455 REQ = 00000010  FRAME = 1  GNT = 11101111  RST = 1
                 465 REQ = 00000010  FRAME = 1  GNT = 11011111  RST = 1
                 725 REQ = 00000010  FRAME = 0  GNT = 11111110  RST = 1
                 750 REQ = 00000010  FRAME = 1  GNT = 11111110  RST = 1
                 775 REQ = 00000010  FRAME = 0  GNT = 11111110  RST = 1
                 800 REQ = 00000010  FRAME = 1  GNT = 11111110  RST = 1
                 825 REQ = 00000010  FRAME = 0  GNT = 11111110  RST = 1
                 850 REQ = 00000010  FRAME = 1  GNT = 11111110  RST = 1
                 875 REQ = 00000010  FRAME = 0  GNT = 11111110  RST = 1
                 900 REQ = 00000010  FRAME = 1  GNT = 11111110  RST = 1
                 925 REQ = 00000010  FRAME = 0  GNT = 11111110  RST = 1
                 950 REQ = 00000010  FRAME = 1  GNT = 11111110  RST = 1
                 975 REQ = 00000010  FRAME = 0  GNT = 11111110  RST = 1
                1000 REQ = 00000010  FRAME = 1  GNT = 11111110  RST = 1
                 625 REQ = 00000010  FRAME = 0  GNT = 11101111  RST = 1
                 650 REQ = 00000010  FRAME = 1  GNT = 11101111  RST = 1
                 655 REQ = 00000010  FRAME = 1  GNT = 11011111  RST = 1
                 665 REQ = 00000010  FRAME = 1  GNT = 10111111  RST = 1
                 675 REQ = 00000010  FRAME = 0  GNT = 10111111  RST = 1
                 700 REQ = 00000010  FRAME = 1  GNT = 10111111  RST = 1
                 705 REQ = 00000010  FRAME = 1  GNT = 01111111  RST = 1
                 715 REQ = 00000010  FRAME = 1  GNT = 11111110  RST = 1
                 725 REQ = 00000010  FRAME = 0  GNT = 11111110  RST = 1
                 750 REQ = 00000010  FRAME = 1  GNT = 11111110  RST = 1
                 755 REQ = 00000010  FRAME = 1  GNT = 11111011  RST = 1
                 765 REQ = 00000010  FRAME = 1  GNT = 11110111  RST = 1
                 775 REQ = 00000010  FRAME = 0  GNT = 11110111  RST = 1
                 800 REQ = 00000010  FRAME = 1  GNT = 11110111  RST = 1
                 805 REQ = 00000010  FRAME = 1  GNT = 11101111  RST = 1
                 815 REQ = 00000010  FRAME = 1  GNT = 11011111  RST = 1
                 825 REQ = 00000010  FRAME = 0  GNT = 11011111  RST = 1
                 850 REQ = 00000010  FRAME = 1  GNT = 11011111  RST = 1
                 855 REQ = 00000010  FRAME = 1  GNT = 10111111  RST = 1
                 865 REQ = 00000010  FRAME = 1  GNT = 01111111  RST = 1
                 875 REQ = 00000010  FRAME = 0  GNT = 01111111  RST = 1
                 900 REQ = 00000010  FRAME = 1  GNT = 01111111  RST = 1
                 905 REQ = 00000010  FRAME = 1  GNT = 11111110  RST = 1
                 915 REQ = 00000010  FRAME = 1  GNT = 11111011  RST = 1
                 925 REQ = 00000010  FRAME = 0  GNT = 11111011  RST = 1
                 950 REQ = 00000010  FRAME = 1  GNT = 11111011  RST = 1
                 955 REQ = 00000010  FRAME = 1  GNT = 11110111  RST = 1
                 965 REQ = 00000010  FRAME = 1  GNT = 11101111  RST = 1
                 975 REQ = 00000010  FRAME = 0  GNT = 11101111  RST = 1
                1000 REQ = 00000010  FRAME = 1  GNT = 11101111  RST = 1
