PCI/PCI.sim/sim_1/behav/xsim/simulate.log
Vivado Simulator 2018.2
Time resolution is 1 ps
                   0 REQ = xxxxxxxx  FRAME = 1  GNT = xxxxxxxx  RST = 0
                   5 REQ = xxxxxxxx  FRAME = 1  GNT = 11111111  RST = 0
                  12 REQ = 11111101  FRAME = 1  GNT = 11111111  RST = 1
                  15 REQ = 11111101  FRAME = 1  GNT = xxxxxxxx  RST = 1
                  22 REQ = 11110101  FRAME = 1  GNT = xxxxxxxx  RST = 1
                  25 REQ = 11110101  FRAME = 1  GNT = 11111101  RST = 1
                  32 REQ = 10010111  FRAME = 0  GNT = 11111101  RST = 1
                  42 REQ = 10010110  FRAME = 1  GNT = 11111101  RST = 1
                  45 REQ = 10010110  FRAME = 1  GNT = 11110111  RST = 1
                  52 REQ = 10011110  FRAME = 0  GNT = 11110111  RST = 1
                  62 REQ = 10111010  FRAME = 1  GNT = 11110111  RST = 1
                  65 REQ = 10111010  FRAME = 1  GNT = 10111111  RST = 1
                  72 REQ = 11111010  FRAME = 1  GNT = 10111111  RST = 1
                  75 REQ = 11111010  FRAME = 1  GNT = 11111110  RST = 1
                  82 REQ = 11111011  FRAME = 1  GNT = 11111110  RST = 1
                  85 REQ = 11111011  FRAME = 1  GNT = 11111011  RST = 1
                  92 REQ = 11111111  FRAME = 1  GNT = 11111011  RST = 1
                 105 REQ = 11111111  FRAME = 1  GNT = 11111111  RST = 1
